{
    "customFonts": [
      {
        "fontFamily": "Noto Sans",
        "fontUrl": "https://fonts.googleapis.com/css?family=Noto+Sans"
      },
      {
        "fontFamily": "Roboto Mono",
        "fontUrl": "https://fonts.googleapis.com/css2?family=Roboto+Mono&display=swap"
      }
    ],
    "defaultFonts": [
      "Verdana",
      "Helvetica",
      "Courier New",
      "Tahoma"
    ],
    "defaultVertexStyle": {"fontFamily": "Noto Sans"}, 
    "defaultEdgeStyle": {"fontFamily": "Noto Sans"},
    "presetColors": [
      "000000",
      "070068",
      "e50869",
      "003d51",
      "562a31",
      "ef7c38",
      "f49e6b",
      "efea78",
      "0d1d2c",
      "0e2538",
      "17243d",
      "087cbb",
      "e50869",
      "0b3b5c",
      "4689c8",
      "eb5c5d",
      "d9b38e",
      "74c095",
      "004337",
      "205b42",
      "1b1e2a",
      "f7be00",
      "5d2a2b",
      "313d47",
      "5b6700",
      "7c868b",
      "a0a7ab",
      "c1c6ca",
      "6a3f23",
      "9b6017",
      "b5814e",
      "f9b34c",
      "eb7082"
    ],
    "customColorSchemes": [
      [
        null,
        {
          "fill": "#000000",
          "stroke": "#000000"
        },
        {
          "fill": "#070068",
          "stroke": "#070068"
        },
        {
          "fill": "#e50869",
          "stroke": "#e50869"
        },
        {
          "fill": "#070068",
          "gradient": "#e50869",
          "gradient-direction": "east"
        },
        {
          "fill": "#003d51",
          "stroke": "#003d51"
        },
        {
          "fill": "#562a31",
          "stroke": "#562a31"
        },
        {
          "fill": "#ef7c38",
          "stroke": "#ef7c38"
        }
      ]
    ]
  }